{
  "name": "astar",
  "url" : "https://gitlab.com/haath/astar",
  "license": "MIT",
  "tags": [ "astar", "pathfinding", "distance", "graph", "a-star", "solver", "optimal", "shortest", "path" ],
  "description": "Generic A-star solver.",
  "version": "0.0.0",
  "classPath": "src",
  "releasenote": "Removed deprecated @:enum tag.",
  "contributors": [ "Haath" ],
  "dependencies": {
  }
}
